2 Spatial autocorrelation | GEOG0114: Principles of Spatial Analysis
…
## [1] 385

# inspect the dataframe: number of rows
nrow(df)

## [1] 7201

# inspect the dataframe: sneak peak
print(df, n_extra=2)

## Warning: The `n_extra` argument of `print()` is deprecated as of pillar 1.6.2.
## Please use the `max_extra_cols` argument instead.

## # A tibble: 7,201 × 385
##    msoa11cd  `Sex: All perso… `Sex: All perso… `Sex: All perso… `Sex: All perso…
##    <chr>                <dbl>            <dbl>            <dbl>            <dbl>
##  1 E02002559              215              206              204                0
##  2 E02002560              175              170              168                1
##  3 E02002561              140              128              128                0
##  4 E02002562              160              155              154                0
##  5 E02002563              132              130              130                0
##  6 E02002564              270              263              261                0
##  7 E02002565              124              119              117                0
##  8 E02002566              150              125              117                0
##  9 E02002567              178              166              159                0
## 10 E02002568              162              159              157                0
## # … with 7,191 more rows, and 380 more variables:
## #   Sex: All persons; Age: Age 16 to 17; Ethnic Group: White: Gypsy or Irish Traveller; measures: Value <dbl>,
## #   Sex: All persons; Age: Age 16 to 17; Ethnic Group: White: Other White; measures: Value <dbl>,
## #   …
…
For each age group in our data, the printed values should (!) correspond with the index number of the start column of the age group and the index number of the end column of the age group, respectively. Let’s do a sanity check.

# sanity check: age group 16-17 (start column)
df[,2]

## # A tibble: 7,201 × 1
##    `Sex: All persons; Age: Age 16 to 17; Ethnic Group: All categories: Ethnic g…
##                                                                            <dbl>
##  1                                                                           215
##  2                                                                           175
##  3                                                                           140
##  4                                                                           160
##  5                                                                           132
##  6                                                                           270
##  7                                                                           124
##  8                                                                           150
##  9                                                                           178
## 10                                                                           162
## # … with 7,191 more rows

# sanity check: age group 16-17 (end column)
df[,25]

## # A tibble: 7,201 × 1
##    `Sex: All persons; Age: Age 16 to 17; Ethnic Group: Other ethnic group: Any …
##                                                                            <dbl>
##  1                                                                             0
##  2                                                                             0
##  3                                                                             0
##  4                                                                             0
##  5                                                                             0
##  6                                                                             0
##  7                                                                             0
##  8                                                                             0
##  9                                                                             0
## 10                                                                             0
## # … with 7,191 more rows

# sanity check: age group 18-19 (start column)
df[,26]

## # A tibble: 7,201 × 1
##    `Sex: All persons; Age: Age 18 to 19; Ethnic Group: All categories: Ethnic g…
##                                                                            <dbl>
##  1                                                                           157
##  2                                                                           129
##  3                                                                           102
##  4                                                                           162
##  5                                                                           121
##  6                                                                           217
##  7                                                                           126
##  8                                                                           231
##  9                                                                           175
## 10                                                                            95
## # … with 7,191 more rows

# sanity check: age group 18-19 (end column)
df[,49]

## # A tibble: 7,201 × 1
##    `Sex: All persons; Age: Age 18 to 19; Ethnic Group: Other ethnic group: Any …
##                                                                            <dbl>
##  1                                                                             1
##  2                                                                             0
##  3                                                                             0
##  4                                                                             0
##  5                                                                             0
##  6                                                                             0
##  7                                                                             0
##  8                                                                             1
##  9                                                                             0
## 10                                                                             0
## # … with 7,191 more rows
…
  # subset the dataframe 
  df_sub <- dplyr::select(df,col_sub)
  
  # pivot the columns in the dataframe, exclude the MSOA code column 
  df_piv <- pivot_longer(df_sub,-msoa11cd)
  
  # rename columns
  names(df_piv) <- c('msoa11cd','age_group','count')
  return(df_piv)
}

# test
columns_to_rows(df,2,25)

## # A tibble: 172,824 × 3
##    msoa11cd  age_group                                                     count
##    <chr>     <chr>                                                         <dbl>
##  1 E02002559 Sex: All persons; Age: Age 16 to 17; Ethnic Group: All categ…   215
##  2 E02002559 Sex: All persons; Age: Age 16 to 17; Ethnic Group: White: To…   206
##  3 E02002559 Sex: All persons; Age: Age 16 to 17; Ethnic Group: White: En…   204
##  4 E02002559 Sex: All persons; Age: Age 16 to 17; Ethnic Group: White: Ir…     0
##  5 E02002559 Sex: All persons; Age: Age 16 to 17; Ethnic Group: White: Gy…     2
##  6 E02002559 Sex: All persons; Age: Age 16 to 17; Ethnic Group: White: Ot…     0
##  7 E02002559 Sex: All persons; Age: Age 16 to 17; Ethnic Group: Mixed/mul…     4
##  8 E02002559 Sex: All persons; Age: Age 16 to 17; Ethnic Group: Mixed/mul…     1
##  9 E02002559 Sex: All persons; Age: Age 16 to 17; Ethnic Group: Mixed/mul…     2
## 10 E02002559 Sex: All persons; Age: Age 16 to 17; Ethnic Group: Mixed/mul…     1
## # … with 172,814 more rows
…
  # index number of end column of age group
  stop <- column + 23 
  
  # call our function and assign it to the list
  df_lst[[length(df_lst)+1]] <- columns_to_rows(df,start=start,stop=stop)
}

# paste all elements from the list underneath one another
# do.call executes the function 'rbind' for all elements in our list
df_reformatted <- as_tibble(do.call(rbind,df_lst))

# and the result
df_reformatted

## # A tibble: 2,765,184 × 3
##    msoa11cd  age_group                                                     count
##    <chr>     <chr>                                                         <dbl>
##  1 E02002559 Sex: All persons; Age: Age 16 to 17; Ethnic Group: All categ…   215
##  2 E02002559 Sex: All persons; Age: Age 16 to 17; Ethnic Group: White: To…   206
##  3 E02002559 Sex: All persons; Age: Age 16 to 17; Ethnic Group: White: En…   204
##  4 E02002559 Sex: All persons; Age: Age 16 to 17; Ethnic Group: White: Ir…     0
##  5 E02002559 Sex: All persons; Age: Age 16 to 17; Ethnic Group: White: Gy…     2
##  6 E02002559 Sex: All persons; Age: Age 16 to 17; Ethnic Group: White: Ot…     0
##  7 E02002559 Sex: All persons; Age: Age 16 to 17; Ethnic Group: Mixed/mul…     4
##  8 E02002559 Sex: All persons; Age: Age 16 to 17; Ethnic Group: Mixed/mul…     1
##  9 E02002559 Sex: All persons; Age: Age 16 to 17; Ethnic Group: Mixed/mul…     2
## 10 E02002559 Sex: All persons; Age: Age 16 to 17; Ethnic Group: Mixed/mul…     1
## # … with 2,765,174 more rows
…
# pivot table and aggregate values
df_clean <- pivot_wider(df_reformatted,names_from=group,values_from=count,values_fn=sum)

# rename columns
# names are assigned based on index values, so make sure that the current column names match the
# order of the new colum names otherwise our whole analysis will be wrong!
names(df_clean) <- c('msoa11cd','white_british','white_irish','white_traveller','white_other','mixed_white_black_caribbean',
                     'mixed_white_black_african','mixed_white_asian','mixed_other','asian_indian','asian_pakistani',
                     'asian_bangladeshi','asian_chinese','asian_other','black_african','black_caribbean','black_other',
                     'other_arab','other_other')

# tidy data
df_clean

## # A tibble: 7,201 × 19
##    msoa11cd  white_british white_irish white_traveller white_other
##    <chr>             <dbl>       <dbl>           <dbl>       <dbl>
##  1 E02002559          6775          17              27          51
##  2 E02002560          4688          11               8          31
##  3 E02002561          4609          20               3          55
##  4 E02002562          4653           4               6         131
##  5 E02002563          4369          13               2          38
##  6 E02002564          7320          11               3          73
##  7 E02002565          4274          16               2          96
##  8 E02002566          4713          33              24         308
##  9 E02002567          5344          17              42         111
## 10 E02002568          4583          29               6         100
## # … with 7,191 more rows, and 14 more variables:
## #   mixed_white_black_caribbean <dbl>, mixed_white_black_african <dbl>,
## #   mixed_white_asian <dbl>, mixed_other <dbl>, asian_indian <dbl>,
## #   asian_pakistani <dbl>, asian_bangladeshi <dbl>, asian_chinese <dbl>,
## #   asian_other <dbl>, black_african <dbl>, black_caribbean <dbl>,
## #   black_other <dbl>, other_arab <dbl>, other_other <dbl>
…
